{
    "$schema": "http://json-schema.org/draft-04/schema#",
    "type": "object",
    "title": "Master Origins",
    "definitions": {
        "addToCart": {
            "type": "object",
            "title": "Add to cart type",
            "options": {
                "collapsed": true
            },
            "oneOf": [
                {
                    "title": "Quantity selector",
                    "properties": {
                        "type": {
                            "type": "string",
                            "enum": [
                                "quantitySelector"
                            ]
                        },
                        "step": {
                            "type": "integer",
                            "title": "Step",
                            "default": 10
                        },
                        "customThirdLine": {
                            "type": "string",
                            "title": "Quantities in third line",
                            "default": "100,150,200,250,300"
                        }
                    },
                    "required": [
                        "type",
                        "step",
                        "customThirdLine"
                    ]
                },
                {
                    "title": "Add one to cart",
                    "properties": {
                        "type": {
                            "type": "string",
                            "enum": [
                                "addOneToCart"
                            ]
                        },
                        "quantity": {
                            "type": "integer",
                            "title": "Quantity",
                            "default": 1
                        }
                    },
                    "required": [
                        "type",
                        "quantity"
                    ]
                }
            ]
        },
        "details": {
            "type": "object",
            "title": "Machine/Accessories experience details",
            "options": {
                "collapsed": true,
                "layout": "grid"
            },
            "properties": {
                "hide": {
                    "type": "boolean",
                    "options": {
                        "grid_columns": 6
                    },
                    "title": "Hide the section",
                    "default": false
                },
                "id": {
                    "type": "string",
                    "options": {
                        "grid_columns": 6,
                        "hidden": true
                    },
                    "title": "Identify the section"
                },
                "headline": {
                    "type": "string",
                    "options": {
                        "grid_columns": 6,
                        "hidden": false
                    },
                    "title": "Machine's name"
                },
                "title": {
                    "type": "string",
                    "options": {
                        "grid_columns": 6,
                        "hidden": false
                    },
                    "title": "Title"
                },
                "content": {
                    "type": "string",
                    "format": "html",
                    "options": {
                        "wysiwyg": false,
                        "grid_columns": 12
                    },
                    "title": "Content"
                }
            },
            "required": [ "hide", "id", "headline", "title" , "content" ]
        },
        "list": {
            "type": "array",
            "options": {
                "grid_columns": 12,
                "collapsed": true,
                "disable_array_add": false,
                "disable_array_delete": false,
                "disable_array_delete_all_rows": true,
                "disable_array_delete_last_row": false,
                "disable_array_reorder": false
            },
            "minItems": 1,
            "additionalItems": false,
            "uniqueItems": true,
            "title": "Product",
            "items": {
                "type": "object",
                "title": "Product",
                "options": {
                    "collapsed": true,
                    "grid_columns": 12
                },
                "properties": {
                    "sku": {
                        "type": "string",
                        "options": {
                            "grid_columns": 12
                        },
                        "title": "SKU"
                    },
                    "addToCart": {
                        "$ref": "#/definitions/addToCart"
                    }
                },
                "required": ["sku", "addToCart"]
            }
        },
        "techParam" : {
            "title": "Which technology is this SKU ?",
            "oneOf": [
                {
                "title": "Original technology",
                "type": "object",
                "properties": {
                    "tech": {
                        "type": "string",
                        "options": {
                            "grid_columns": 4,
                            "enum_titles": ["ORIGINAL LINE"],
                            "hidden": true
                        },
                        "readOnly": true,
                        "enum": ["ol"],
                        "title": "Technology"
                    },
                    "param": {
                        "type": "string",
                        "title": "Choose ORIGINAL capsule's name or \"Accessory or Machine or Assortment\"",
                        "options":{
                            "wysiwyg": false,
                            "grid_columns": 12,
                            "enum_titles": [
                            "Accessory or Machine or Assortment",
                            "arpeggio-decaffeinato",
                            "arpeggio",
                            "bukeela",
                            "capriccio",
                            "caramelito",
                            "ciocattino",
                            "cosi",
                            "dharkan",
                            "dulsao",
                            "envivo",
                            "fortissio",
                            "indriya",
                            "kazaar",
                            "linizio",
                            "livanto",
                            "ristretto-decaffeinato",
                            "ristretto",
                            "roma",
                            "rosabaya",
                            "vanilio",
                            "vivalto-decaffeinato",
                            "vivalto",
                            "volluto-decaffeinato",
                            "volluto"
                            ]
                        },
                        "enum": [
                            "",
                            "arpeggio-decaffeinato",
                            "arpeggio",
                            "bukeela",
                            "capriccio",
                            "caramelito",
                            "ciocattino",
                            "cosi",
                            "dharkan",
                            "dulsao",
                            "envivo",
                            "fortissio",
                            "indriya",
                            "kazaar",
                            "linizio",
                            "livanto",
                            "ristretto-decaffeinato",
                            "ristretto",
                            "roma",
                            "rosabaya",
                            "vanilio",
                            "vivalto-decaffeinato",
                            "vivalto",
                            "volluto-decaffeinato",
                            "volluto"
                            ]

                    }
                },
                "additionalProperties": false,
                "required": ["tech", "param"]
                },
                {
                    "title": "Vertuo technology",
                    "type": "object",
                    "properties": {
                        "tech": {
                            "type": "string",
                            "options": {
                                "grid_columns": 4,
                                "enum_titles": ["VERTUO LINE"],
                                "hidden": true
                            },
                            "readOnly": true,
                            "enum": ["vl"],
                            "title": "Technology"
                        },
                        "param": {
                            "type": "string",
                            "title": "Choose VERTUO capsule's name or \"Accessory or Machine or Assortment\"",
                            "options":{
                                "wysiwyg": false,
                                "grid_columns": 12,
                                "enum_titles": [
                                "Accessory or Machine or Assortment",
                                "aflorazio",
                                "altissio",
                                "alto-dolce",
                                "alto-intenso",
                                "arondio",
                                "caramelizio",
                                "chiaro",
                                "decaffeinato-intenso",
                                "decaffeinato-ontuoso",
                                "decaffeinato",
                                "double-espresso",
                                "diavolitto",
                                "dolce",
                                "elvazio",
                                "fortado",
                                "giornio",
                                "halfcaffeinato",
                                "hazelino",
                                "intenso",
                                "melozio",
                                "odacio",
                                "scuro",
                                "solelio",
                                "stormio",
                                "vanizio",
                                "voltesso"
                            ]
                            },
                            "enum": [
                                "",
                                "aflorazio",
                                "altissio",
                                "alto-dolce",
                                "alto-intenso",
                                "arondio",
                                "caramelizio",
                                "chiaro",
                                "decaffeinato-intenso",
                                "decaffeinato-ontuoso",
                                "decaffeinato",
                                "double-espresso",
                                "diavolitto",
                                "dolce",
                                "elvazio",
                                "fortado",
                                "giornio",
                                "halfcaffeinato",
                                "hazelino",
                                "intenso",
                                "melozio",
                                "odacio",
                                "scuro",
                                "solelio",
                                "stormio",
                                "vanizio",
                                "voltesso"
                            ]
                        }
                    },
                "additionalProperties": false,
                "required": ["tech", "param"]
                }
            ]
        }
    },
    "properties": {
        "technology": {
            "propertyOrder": 1,
            "type": "object",
            "title": "Which technologies do you have ?",
            "options": {
                "collapsed": true,
                "layout": "grid"
            },
            "properties": {
                "isBothTech": {
                    "type": "boolean",
                    "options": {
                        "grid_columns": 4,
                        "enum_titles": ["Yes, I have Original AND Vertuo capsules" , "No, I am ONLY original tech market."]
                    },
                    "enum": [true , false],
                    "title": "Have Both Technologies"
                }
            },
            "required": ["isBothTech"]
        },
        "breadcrumb": {
            "propertyOrder": 2,
            "type": "object",
            "title": "Breadcrumb- Bar on the top",
            "options": {
                "collapsed": true,
                "layout": "grid"
            },
            "properties": {
                "hide": {
                    "type": "boolean",
                    "options": {
                        "grid_columns": 6,
                        "hidden": false
                    },
                    "title": "Hide the section",
                    "default": false
                  },
                "category": {
                    "type": "object",
                    "title": "Category",
                    "options": {
                        "collapsed": true
                    },
                    "required": ["content", "link", "link_mobile"],
                    "properties": {
                        "content": {
                            "type": "string",
                            "options": {
                                "grid_columns": 12
                            },
                            "title": "Label"
                        },
                        "link": {
                            "type": "string",
                            "options": {
                                "grid_columns": 12
                            },
                            "title": "Link"
                        },
                        "link_mobile": {
                            "type": "string",
                            "options": {
                                "grid_columns": 12
                            },
                            "title": "Mobile link",
                            "description": "Let it blank if it's the same as desktop"
                        }
                    }
                },
                "siblings": {
                    "type": "array",
                    "options": {
                        "grid_columns": 12,
                        "collapsed": true
                    },
                    "uniqueItems": true,
                    "title": "Links",
                    "items": {
                        "type": "object",
                        "headerTemplate": "{{ self.content }}",
                        "options": {
                            "layout": "grid",
                            "collapsed": true
                        },
                        "title": "Link",
                        "required": ["content"],
                        "properties": {
                            "content": {
                                "type": "string",
                                "options": {
                                    "grid_columns": 6
                                },
                                "title": "Label"
                            },
                            "link": {
                                "type": "string",
                                "options": {
                                    "grid_columns": 12
                                },
                                "title": "Link"
                            },
                            "link_mobile": {
                                "type": "string",
                                "options": {
                                    "grid_columns": 12
                                },
                                "title": "Mobile link",
                                "description": "Left it blank if it's the same as desktop"
                            },
                            "selected": {
                                "type": "boolean",
                                "options": {
                                    "grid_columns": 6,
                                    "hidden": true
                                },
                                "title": "Selected"
                            },
                            "type": {
                                "type": "string",
                                "options": {
                                    "grid_columns": 6,
                                    "hidden": true
                                },
                                "title": "Selected",
                                "enum": ["button", "text"]
                            }
                        }
                    }
                },
                "coffees": {
                    "type": "array",
                    "options": {
                        "grid_columns": 12,
                        "collapsed": true,
                        "disable_array_add": false,
                        "disable_array_delete": false,
                        "disable_array_delete_all_rows": true,
                        "disable_array_delete_last_row": true,
                        "disable_array_reorder": false
                    },
                    "minItems": 1,
                    "additionalItems": false,
                    "uniqueItems": true,
                    "title": "Add other Capsules, Accessories, Machines apart from the new Coffee range(coffees master origin) which will be configurated later on.",
                    "items": {
                        "type": "object",
                        "headerTemplate": "{{ self.name }}",
                        "options": {
                            "layout": "grid",
                            "collapsed": true
                        },
                        "title": "Coffee/Machine/Accessory",
                        "properties": {
                            "name": {
                                "title": "Translate the capsule name",
                                "type": "string",
                                "options": {
                                    "grid_columns": 6
                                }
                            },
                            "aromaticProfil": {
                                "type": "string",
                                "options": {
                                    "wysiwyg": false,
                                    "grid_columns": 12
                                },
                                "title": "Aromatic Profil"
                            },
                            "alt": {
                                "type": "string",
                                "options": {
                                    "wysiwyg": false,
                                    "grid_columns": 12
                                },
                                "title": "Alternative title to image"
                            },
                            "description": {
                                "type": "string",
                                "format": "html",
                                "options": {
                                    "wysiwyg": false,
                                    "grid_columns": 12
                                },
                                "title": "Popin Description"
                            },
                            "sku": {
                                "type": "string",
                                "options": {
                                    "grid_columns": 12
                                },
                                "title": "SKU"
                            },
                            "addToCart": {
                                "$ref": "#/definitions/addToCart"
                            },
                            "techParam": {
                                "$ref": "#/definitions/techParam"
                            }
                        },
                        "required": ["name", "aromaticProfil", "description", "sku", "addToCart", "techParam"]
                    }
                }
            },
            "required": ["hide", "category", "siblings", "coffees"]
        },
        "hero": {
            "propertyOrder": 3,
            "type": "object",
            "title": "1st section: Hero",
            "options": {
                "collapsed": true,
                "layout": "grid"
            },
            "properties": {
                "hide": {
                    "type": "boolean",
                    "options": {
                        "grid_columns": 6,
                        "hidden": true
                    },
                    "title": "Hide the section",
                    "default": false
                },
                "id": {
                    "type": "string",
                    "options": {
                        "grid_columns": 6,
                        "hidden": true
                    },
                    "title": "Identify the section (used for the anchor link)"
                },
                "title": {
                    "type": "string",
                    "options": {
                        "wysiwyg": false,
                        "grid_columns": 12
                    },
                    "title": "Title"
                },
                "subtitle": {
                    "type": "string",
                    "options": {
                        "wysiwyg": false,
                        "grid_columns": 12
                    },
                    "title": "subTitle"
                }
            },
            "required": ["hide", "id", "title", "subtitle"]
        },
        "rangeDescription": {
            "propertyOrder": 4,
            "type": "object",
            "title": "2nd section: Range description",
            "options": {
                "collapsed": true,
                "layout": "grid"
            },
            "properties": {
                "hide": {
                    "type": "boolean",
                    "options": {
                        "grid_columns": 6,
                        "hidden": false
                    },
                    "title": "Hide the section",
                    "default": false
                },
                "id": {
                    "type": "string",
                    "options": {
                        "grid_columns": 6,
                        "hidden": true
                    },
                    "title": "Identify the section (used for the anchor link)"
                },
                "title": {
                    "type": "string",
                    "options": {
                        "wysiwyg": false,
                        "grid_columns": 12
                    },
                    "title": "Title"
                },
                "content": {
                    "type": "string",
                    "format": "html",
                    "options": {
                        "wysiwyg": false,
                        "grid_columns": 12
                    },
                    "title": "content"
                },
                "content2": {
                    "type": "string",
                    "format": "html",
                    "options": {
                        "wysiwyg": false,
                        "grid_columns": 12
                    },
                    "title": "sub content"
                }
            },
            "required": ["id", "hide", "title", "content", "content2"]
        },
        "coffeeSections": {
            "propertyOrder": 5,
            "type": "object",
            "title": "3rd section: Coffee Sections",
            "options": {
                "collapsed": true,
                "layout": "grid"
            },
            "properties": {
                "hide": {
                    "type": "boolean",
                    "options": {
                        "grid_columns": 6,
						"hidden": true
                    },
                    "title": "Hide the section",
                    "default": false
                },
                "id": {
                    "type": "string",
                    "options": {
                        "grid_columns": 12,
                        "hidden": true
                    },
                    "title": "Identify the section"
                },
                "title": {
                    "type": "string",
                    "options": {
                        "wysiwyg": false,
                        "grid_columns": 12
                    },
                    "title": "Title"
                },
                "popinDescription": {
                    "type": "string",
                    "format": "html",
                    "options": {
                        "wysiwyg": false,
                        "grid_columns": 12
                    },
                    "title": "Popin Description"
                },
                "coffees": {
                    "type": "array",
                    "options": {
                        "grid_columns": 12,
                        "collapsed": true,
                        "disable_array_add": true,
                        "disable_array_delete": true,
                        "disable_array_delete_all_rows": true,
                        "disable_array_delete_last_row": true,
                        "disable_array_reorder": false
                    },
                    "minItems": 1,
                    "maxItems": 7,
                    "additionalItems": false,
                    "uniqueItems": true,
                    "title": "Title & description for each coffee",
                    "items": {
                        "type": "object",
                        "headerTemplate": "{{ self.name }}, {{ self.tech }}",
                        "options": {
                            "layout": "grid",
                            "collapsed": true
                        },
                        "title": "Coffee",
                        "properties": {
                            "id": {
                                "type": "string",
                                "title": "Identify coffee",
                                "options": {
                                    "grid_columns": 12,
                                    "hidden": false,
                                    "enum_titles": [
                                        "Mexico Vertuo",
                                        "Colombia Vertuo",
                                        "Indonesia Original",
                                        "Ethiopia Original",
                                        "Colombia Original",
                                        "India Original",
                                        "Nicaragua Original"
                                    ]
                                },
                                "readOnly": true,
                                "enum": [
                                    "vl_mexico",
                                    "vl_colombia",
                                    "ol_indonesia",
                                    "ol_ethiopia",
                                    "ol_colombia",
                                    "ol_india",
                                    "ol_nicaragua"
                                ]
                            },
                            "tech": {
                                "type": "string",
                                "options": {
                                    "grid_columns": 6,
                                    "hidden": true,
                                    "enum_titles": ["VL", "OL"]
                                },
                                "readOnly": true,
                                "enum": ["ol", "vl"]
                            },
                            "name": {
                                "type": "string",
                                "options": {
                                    "grid_columns": 6
                                }
                            },
                            "aromaticProfil": {
                                "type": "string",
                                "options": {
                                    "wysiwyg": false,
                                    "grid_columns": 12
                                },
                                "title": "Aromatic Profil"
                            },
                            "alt": {
                                "type": "string",
                                "options": {
                                    "wysiwyg": false,
                                    "grid_columns": 12
                                },
                                "title": "Alternative title to image"
                            },
                            "sectionDescription": {
                                "type": "string",
                                "format": "html",
                                "options": {
                                    "wysiwyg": false,
                                    "grid_columns": 12
                                },
                                "title": "Section Description"
                            },
                            "description": {
                                "type": "string",
                                "format": "html",
                                "options": {
                                    "wysiwyg": false,
                                    "grid_columns": 12
                                },
                                "title": "Popin Description"
                            },
                            "sku": {
                                "type": "string",
                                "options": {
                                    "grid_columns": 12
                                },
                                "title": "SKU"
                            },
                            "addToCart": {
                                "$ref": "#/definitions/addToCart"
                            },
                            "ccpLink": {
                                "type": "string",
                                "options": {
                                    "grid_columns": 12
                                },
                                "title": "Link CCP"
                            },
                            "ccpLinkMobile": {
                                "type": "string",
                                "options": {
                                    "grid_columns": 12
                                },
                                "title": "Mobile link CCP"
                            },
                            "recipeId": {
                                "type": "string",
                                "options": {
                                    "grid_columns": 12
                                },
                                "title": "Recipe ID"
                            },
                            "fairtrade": {
                                "type": "string",
                                "options": {
                                    "grid_columns": 12
                                },
                                "title": "Fairtrade for accessibility reader"
                            }
                        },
                        "required": ["id", "tech", "name", "aromaticProfil", "sectionDescription", "description", "sku", "addToCart", "ccpLink", "ccpLinkMobile", "recipeId"]
                    }
                }
            },
            "required": ["id", "hide", "title", "popinDescription", "coffees"]
        },
        "machineExperience": {
            "propertyOrder": 6,
            "type": "object",
            "title": "4th section: Machines",
            "options": {
                "collapsed": true,
                "layout": "grid"
            },
            "properties": {
                "detailsOl": {
                    "$ref": "#/definitions/details",
                    "properties": {
                        "imageId": {
                            "type": "string",
                            "options": {
                                "grid_columns": 6,
                                "hidden": false,
                                "enum_title": ["Machine OL", "Creatista", "Essenza C", "Essenza D"]
                            },
                            "title": "Identify the image",
                            "enum": ["ol_machine", "ol_creatista", "ol_essenzaC", "ol_essenzaD"]
                        }
                    },
                    "required": ["imageId"]
                },
                "detailsVl": {
                    "$ref": "#/definitions/details",
                    "properties": {
                        "imageId": {
                            "type": "string",
                            "options": {
                                "grid_columns": 6,
                                "hidden": false,
                                "enum_title": ["Machine VL"]
                            },
                            "title": "Identify the image",
                            "readOnly": true,
                            "enum": ["vl_machine"]
                        }
                    },
                    "required": ["imageId"]
                },
                "products": {
                    "type": "object",
                    "title": "products Machines",
                    "options": {
                        "collapsed": true,
                        "layout": "grid"
                    },
                    "properties": {
                        "hide": {
                            "type": "boolean",
                            "options": {
                                "grid_columns": 6
                            },
                            "title": "Hide products",
                            "default": false
                        },
                        "id": {
                            "type": "string",
                            "options": {
                                "grid_columns": 12,
                                "hidden": true
                            },
                            "title": "Identify for products"
                        },
                        "title": {
                            "type": "string",
                            "options": {
                                "wysiwyg": false,
                                "grid_columns": 12
                            },
                            "title": "Title"
                        },
                        "list": {
                            "$ref": "#/definitions/list"
                         }
                    },
                    "required": ["hide", "id", "title", "list"]
                }
            }
        },
        "accessoryExperience": {
            "propertyOrder": 7,
            "type": "object",
            "title": "5th section: Accessories",
            "options": {
                "collapsed": true,
                "grid_columns": 12,
                "layout": "grid"
            },
            "properties": {
                "hide": {
                    "type": "boolean",
                    "options": {
                        "grid_columns": 6
                    },
                    "title": "Hide products",
                    "default": false
                },
                "detailsOl": {
                    "$ref": "#/definitions/details",
                    "properties": {
                        "imageId": {
                            "type": "string",
                            "options": {
                                "grid_columns": 6,
                                "hidden": false,
                                "enum_title": ["Accessory"]
                            },
                            "title": "Identify the image",
                            "readOnly": true,
                            "enum": ["accessory"]
                        }
                    },
                    "required": ["imageId"]
                },
                "products": {
                    "type": "object",
                    "title": "products Accessories",
                    "options": {
                        "collapsed": true,
                        "layout": "grid"
                    },
                    "properties": {
                        "hide": {
                            "type": "boolean",
                            "options": {
                                "grid_columns": 6
                            },
                            "title": "Hide products",
                            "default": false
                        },
                        "id": {
                            "type": "string",
                            "options": {
                                "grid_columns": 12,
                                "hidden": true
                            },
                            "title": "Identify for products"
                        },
                        "title": {
                            "type": "string",
                            "options": {
                                "wysiwyg": false,
                                "grid_columns": 12
                            },
                            "title": "Title"
                        },
                        "list": {
                           "$ref": "#/definitions/list"
                        }
                    },
                    "required": ["hide", "id", "title", "list"]
                }
            },
            "required": ["hide", "detailsOl", "products"]
        },
		"common": {
			"propertyOrder": 8,
			"type": "object",
            "title": "Common translations",
            "options": {
                "collapsed": true,
                "layout": "grid"
            },
			"properties": {
                "close": {
                    "type": "string",
                    "options": {
                        "grid_columns": 6
                    },
                    "title": "Close"
                },
                "ccpLinkLabel": {
                    "type": "string",
                    "options": {
                        "grid_columns": 6
                    },
                    "title": "ccp Link Label"
                },
                "discoverMore": {
                    "type": "string",
                    "options": {
                        "grid_columns": 6
                    },
                    "title": "Discover More"
                },
                "suggestedRecipe": {
                    "type": "string",
                    "options": {
                        "grid_columns": 6
                    },
                    "title": "Suggesting Recipe Label"
                },
                "intensity": {
                    "type": "string",
                    "options": {
                        "grid_columns": 6
                    },
                    "title": "Intensity"
                },
                "back": {
                    "type": "string",
                    "options": {
                        "grid_columns": 6
                    },
                    "title": "back"
                },
                "voice": {
                    "type": "string",
                    "options": {
                        "grid_columns": 6
                    },
                    "title": "voice"
                }
			},
			"required": [ "close", "ccpLinkLabel", "discoverMore", "suggestedRecipe", "intensity", "back", "voice"]
		},
        "config": {
            "propertyOrder": 9,
            "type": "object",
            "title": "Configuration",
            "options": {
                "collapsed": true,
                "layout": "grid"
            },
            "properties": {
                "addToCart": {
                    "type": "object",
                    "options": {
                        "layout": "grid",
                        "collapsed": true
                    },
                    "title": "Add To Cart button",
                    "properties": {
                        "useMosaicOne": {
                            "type": "boolean",
                            "title": "Activate the Mosaic add to cart",
                            "description": "https://wiki.nespresso.com/display/DEVCEN/Webmaster+tooling#Webmastertooling-Mosaic",
                            "options": {
                                "hidden": true
                            }
                        },
                        "addToCart": {
                            "type": "string",
                            "options": {
                                "grid_columns": 6
                            },
                            "title": "Label"
                        },
                        "updateCart": {
                            "type": "string",
                            "options": {
                                "grid_columns": 6
                            },
                            "title": "Update the cart"
                        },
                        "outOfStock": {
                            "type": "string",
                            "options": {
                                "grid_columns": 6
                            },
                            "title": "Out of stock"
                        },
                        "voices": {
                            "type": "object",
                            "options": {
                                "collapsed": true,
                                "layout": "grid"
                            },
                            "title": "Read by the reader for accessibility",
                            "properties": {
                                "close": {
                                    "type": "string",
                                    "options": {
                                        "grid_columns": 12
                                    },
                                    "title": "Close"
                                },
                                "addToCart": {
                                    "type": "string",
                                    "options": {
                                        "grid_columns": 12
                                    },
                                    "title": "Button informations"
                                },
                                "outOfStock": {
                                    "type": "string",
                                    "options": {
                                        "grid_columns": 12
                                    },
                                    "title": "Out of stock information"
                                },
                                "howTo": {
                                    "type": "string",
                                    "options": {
                                        "grid_columns": 12
                                    },
                                    "title": "Explain the behavior"
                                },
                                "clickToRemove": {
                                    "type": "string",
                                    "options": {
                                        "grid_columns": 12
                                    },
                                    "title": "Label of a quantity selector"
                                },
                                "chooseQuantity": {
                                    "type": "string",
                                    "options": {
                                        "grid_columns": 12
                                    },
                                    "title": "Label of the quantity input field"
                                },
                                "otherQuantity": {
                                    "type": "string",
                                    "options": {
                                        "grid_columns": 12
                                    },
                                    "title": "Other quantity is the placeholder of the quantity input field"
                                }
                            },
                            "required": [
                                "close",
                                "addToCart",
                                "outOfStock",
                                "howTo",
                                "clickToRemove",
                                "chooseQuantity",
                                "otherQuantity"
                            ]
                        }
                    },
                    "required": [
                        "useMosaicOne",
                        "addToCart",
                        "updateCart",
                        "outOfStock",
                        "voices"
                    ]
                }
            },
            "required": ["addToCart"]
        }
    },
    "required": ["technology", "breadcrumb", "hero", "rangeDescription", "coffeeSections", "machineExperience", "accessoryExperience", "common", "config"]
}
