{
    "technology": {
        "isBothTech": true
    },
    "breadcrumb": {
        "hide": false,
        "category": {
            "content": "Master Origin",
            "link": "#",
            "link_mobile": ""
        },
        "siblings": [
            {
                "content": "Original",
                "link": "#ol_indonesia",
                "link_mobile": "",
                "selected": false
            },
            {
                "content": "Vertuo",
                "link": "#vl_mexico",
                "link_mobile": "",
                "selected": false
            },
            {
                "content": "Machines",
                "link": "#machine-experience-detailsOl",
                "link_mobile": "",
                "selected": false
            },
            {
                "content": "Accessories",
                "link": "#accessory-experience-details",
                "link_mobile": "",
                "selected": false
            },
            {
                "content": "Buy",
                "type": "button"
            }
        ],
        "coffees": [
            {
                "name": "vivalto",
                "aromaticProfil": "Fruity and winey",
                "alt": "Colombia Master Origin Vertuo Coffee",
                "description": "<p>High altitude produces a fine Arabica, and few are grown higher than our Colombian Arabica from the Andean slopes of Aguadas.</p><p>The altitude and colder climate means the fermentation process takes longer, so it’s crucial to know when the beans have been resting for the perfect amount of time. We trust in our expert partner farmers, who feel their beans and trust in what their texture tells them.</p>",
                "sku": "7622.10",
                "addToCart": {
                    "type": "quantitySelector",
                    "step": 10,
                    "customThirdLine": "100,150,200,250,300"
                },
                "techParam" :
                {
                    "tech": "ol",
                    "param": "vivalto"
                }
            },
            {
                "name": "cafe 2",
                "aromaticProfil": "Fruity and winey",
                "alt": "Colombia Master Origin Vertuo Coffee",
                "description": "<p>High altitude produces a fine Arabica, and few are grown higher than our Colombian Arabica from the Andean slopes of Aguadas.</p><p>The altitude and colder climate means the fermentation process takes longer, so it’s crucial to know when the beans have been resting for the perfect amount of time. We trust in our expert partner farmers, who feel their beans and trust in what their texture tells them.</p>",
                "sku": "7698.10",
                "addToCart": {
                    "type": "quantitySelector",
                    "step": 10,
                    "customThirdLine": "100,150,200,250,300"
                },
                "techParam" :
                {
                    "tech": "ol",
                    "param": "vivalto"
                }
            },
            {
                "name": "cafe 3",
                "aromaticProfil": "Fruity and winey",
                "alt": "Colombia Master Origin Vertuo Coffee",
                "description": "<p>High altitude produces a fine Arabica, and few are grown higher than our Colombian Arabica from the Andean slopes of Aguadas.</p><p>The altitude and colder climate means the fermentation process takes longer, so it’s crucial to know when the beans have been resting for the perfect amount of time. We trust in our expert partner farmers, who feel their beans and trust in what their texture tells them.</p>",
                "sku": "7700.10",
                "addToCart": {
                    "type": "quantitySelector",
                    "step": 10,
                    "customThirdLine": "100,150,200,250,300"
                },
                "techParam" :
                {
                    "tech": "ol",
                    "param": "vivalto"
                }
            }
        ]
    },
    "hero": {
        "hide": false,
        "id": "hero",
        "title": "Master Origin",
        "subtitle": "Mastered by Craftsmen, inspired by the land."
    },
    "rangeDescription": {
        "id": "range-description",
        "hide": false,
        "title": "A range of the world's finest coffee crafts",
        "content": "The aim of our Master Origin range was simple - to allow you to discover outstanding examples of coffee craftsmanship from accross the world.",
        "content2": "<p>So we searched for some of its finest coffee craftsmen. Then we worked with them to refine their crafts, trying new techniques and pushing boundaries.</p><p>It took us years to create such perfectly-crafted coffees. Your journey of discovery should be somewhat quicker.</p>"
    },
    "coffeeSections": {
        "id": "coffees",
        "hide": false,
        "title": "Discover the coffee range",
        "popinDescription": "We're proud to introduce our range of five new coffees from around the world, each with its own distinct taste and aroma.",
        "coffees": [
            {
                "id": "vl_mexico",
                "tech": "vl",
                "name": "Mexico",
                "aromaticProfil": "Intense and woody",
                "alt": "Mexico Master Origin Vertuo Coffee",
                "sectionDescription": "Treated with a specially developed double-washed process, to unlock all of its intense, spicy flavours. Featuring a rare strain of large Robusta beans found in Tepatlaxco, Mexico.",
                "description": "<p>In the foothills of Tepatlaxco, Mexico, we found a rare strain of large Robusta beans with an unusual profile,offering an incredibly clean, neutral cup when blended.</p><p>To unlock their wild, roasted taste requires a process as unique as the beans themselves. Unlike all other coffees, they aren’t fermented and washed once but twice to remove any lingering sweet flavours from their fruit, leaving a distinct array of intense, spicy notes.</p>",
                "sku": "7834.10",
                "addToCart": {
                    "type": "quantitySelector",
                    "step": 10,
                    "customThirdLine": "100,150,200,250,300"
                },
                "ccpLink": "./our-choices/coffee-origins-and-blends/vertuo-double-washed-robusta-mexican-coffee-pods",
                "ccpLinkMobile": "",
                "recipeId": "25579ENT"
            },
            {
                "id": "vl_colombia",
                "tech": "vl",
                "name": "Colombia",
                "aromaticProfil": "Fruity and winey",
                "alt": "Colombia Master Origin Vertuo Coffee",
                "sectionDescription": "Crafted high above the clouds in the Andes, by expert farmers who leave their beans resting for longer. A fine washed Arabica with winey, fruity notes of red berries.",
                "description": "<p>High altitude produces a fine Arabica, and few are grown higher than our Colombian Arabica from the Andean slopes of Aguadas.</p><p>The altitude and colder climate means the fermentation process takes longer, so it’s crucial to know when the beans have been resting for the perfect amount of time. We trust in our expert partner farmers, who feel their beans and trust in what their texture tells them.</p>",
                "sku": "7646.10",
                "addToCart": {
                    "type": "quantitySelector",
                    "step": 10,
                    "customThirdLine": "100,150,200,250,300"
                },
                "ccpLink": "./our-choices/coffee-origins-and-blends/vertuo-washed-arabica-colombian-coffee-pods",
                "ccpLinkMobile": "",
                "recipeId": "25582DUE",
                "fairtrade": "This is a fairtrade coffee."
            },
            {
                "id": "ol_indonesia",
                "tech": "ol",
                "name": "Indonesia",
                "aromaticProfil": "Rich and woody",
                "alt": "Indonesia Master Origin Original Coffee",
                "sectionDescription": "Crafted in the jungle mists of northern Sumatra by farmers who have perfected the art of wet-hulling. An unmistakably exotic coffee with a rich, velvety body and wild, woody notes.",
                "description": "<p>In northern Sumatra, local farmers have perfected the art of wet-hulling in response to the unusually humid climate, creating an incredibly distinct coffee.</p><p>To create our own standard, we chose a prime Arabica growing region and helped set up a cooperative of farmers to preserve the high quality of the beans. The result? A rich woody coffee that couldn't be more exotic if it tried.</p>",
                "sku": "7696.10",
                "addToCart": {
                    "type": "quantitySelector",
                    "step": 10,
                    "customThirdLine": "100,150,200,250,300"
                },
                "ccpLink": "./our-choices/coffee-origins-and-blends/wet-hulled-indonesian-coffee-pods",
                "ccpLinkMobile": "",
                "recipeId": "25575DAS",
                "fairtrade": "This is a fairtrade coffee."
            },
            {
                "id": "ol_ethiopia",
                "tech": "ol",
                "name": "Ethiopia",
                "aromaticProfil": "Flowery and bright",
                "alt": "Ethiopia Master Origin Original Coffee",
                "sectionDescription": "Expertly dried in the African heat with the coffee bean still inside its cherry, to absorb the sweet flavours from its fruit. Discover bright notes of fruit jam and orange blossom flowers.",
                "description": "<p>The unusually hot climate of western Ethiopia has allowed our partner farmers to perfect theart of dry-processing their coffee.</p><p>After harvesting, they carefully dry the whole cherries in the African sun for weeks, to let the beans inside absorb the sweet, ripe flavours from the fruit. To tell when the coffee has acquired the perfect amount of bright, fruity notes takes years of experience. Or just one sip.</p>",
                "sku": "7695.10",
                "addToCart": {
                    "type": "quantitySelector",
                    "step": 10,
                    "customThirdLine": "100,150,200,250,300"
                },
                "ccpLink": "../../our-choices/coffee-origins-and-blends/dry-processed-ethiopian-coffee-pods",
                "ccpLinkMobile": "/ch/en/our-choices/#/category/article",
                "recipeId": "23077CAP"
            },
            {
                "id": "ol_colombia",
                "tech": "ol",
                "name": "Colombia",
                "aromaticProfil": "Fruity and vibrant",
                "alt": "Colombia Master Origin Original Coffee",
                "sectionDescription": "Left to ripen on the branch much longer, then individually handpicked on the day when it’s perfectly ready. A classic late harvest coffee with vibrant winey notes of red fruits and berries.",
                "description": "<p>To create something truly distinct, we introduced the late-harvest technique to our most trusted partner farmers in Colombia.</p><p>The coffee cherries are left to ripen much longer, then individually handpicked on the perfect day, but not a day too late. It’s a very risky process, but the brighter, fruitier notes make it very rewarding.</p>",
                "sku": "7691.10",
                "addToCart": {
                    "type": "quantitySelector",
                    "step": 10,
                    "customThirdLine": "100,150,200,250,300"
                },
                "ccpLink": "./our-choices/coffee-origins-and-blends/late-harvest-arabica-colombian-coffee-pods",
                "ccpLinkMobile": "",
                "recipeId": "23077CAP"
            },
            {
                "id": "ol_india",
                "tech": "ol",
                "name": "India",
                "aromaticProfil": "Intense and spicy",
                "alt": "India Master Origin Original Coffee",
                "sectionDescription": "Meticulously exposed to the wet monsoon winds and fierce Indian heat to cultivate a robust, powerful character. Brace yourself for an intense, aromatic cup with an array of spicy, woody notes.",
                "description": "<p>If you’ve never experienced the monsoon winds, our Indian partners have captured every bit of their power and intensity.</p><p>Carefully exposing our coffee to the raging wet winds and fierce Indian heat for months cultivates a strong, powerful character - as well as requiring one. And to create a more complex, spicy profile, we chose to use a local Robusta coffee instead of the usual Arabica.</p>",
                "sku": "7435.10",
                "addToCart": {
                    "type": "quantitySelector",
                    "step": 10,
                    "customThirdLine": "100,150,200,250,300"
                },
                "ccpLink": "./our-choices/coffee-origins-and-blends/monsoon-indian-coffee-pods",
                "ccpLinkMobile": "",
                "recipeId": "073LAT"
            },
            {
                "id": "ol_nicaragua",
                "tech": "ol",
                "name": "Nicaragua",
                "aromaticProfil": "Sweet and harmonious",
                "alt": "Nicaragua Master Origin Original Coffee",
                "sectionDescription": "Carefully turned in the Nicaraguan sunshine to soak up the natural sugars of its fruit. A beautifully balanced black honey coffee, with a smooth, satiny texture and sweet, cereal flavours.",
                "description": "<p>High in the foothills of western Nicaragua, our black honey coffee is carefully turned in the sun for weeks to soak up the sweet natural sugars of its fruit.</p><p>This rare technique requires meticulous care and attention, so we were just as careful in choosing our partners when we helped reintroduce it to the region. Discover the full story here.</p>",
                "sku": "7645.10",
                "addToCart": {
                    "type": "quantitySelector",
                    "step": 10,
                    "customThirdLine": "100,150,200,250,300"
                },
                "ccpLink": "./our-choices/coffee-origins-and-blends/black-honey-nicaragua-coffee-pods",
                "ccpLinkMobile": "",
                "recipeId": "073LAT"
            }
        ]
    },
    "machineExperience": {
        "detailsOl": {
            "hide": false,
            "id": "machine-experience-detailsOl",
            "imageId": "ol_machine",
            "headline": "Essenza Mini",
            "title": "For a perfectly crafted coffee experience",
            "content": "<p>Inspired by the same spirit of fine craft as the Master Origin coffees, this elegant Essenza Mini coffee machines have been redesigned with a black matte look and contemporary finishing on the handle.</p><p>Available for a limited time only, they offer the complete Master Origin experience of refined coffee craftmanship.</p>"
        },
        "detailsVl": {
            "hide": false,
            "id": "machine-experience-detailsVl",
            "imageId": "vl_machine",
            "headline": "Vertuo plus",
            "title": "A new standard of vertuo craft",
            "content": "<p>The new Vertuo Plus has been carefully crafted to offer Vertuo drinkers a versatile and seamless coffee experience from short to long cups, featuring a large but elegantly incorporated water tank of 1.8l. Its matte black paint and enhanced finish complete the exclusive and modern look.</p>"
        },
        "products": {
            "hide": false,
            "id": "machine-experience-products",
            "title": "Choose your Essenza Mini",
            "list": [{
                "sku": "3407",
                "addToCart": {
                    "type": "quantitySelector",
                    "step": 10,
                    "customThirdLine": "100,150,200,250,300"
                }
            }, {
                "sku": "3658/2",
                "addToCart": {
                    "type": "quantitySelector",
                    "step": 10,
                    "customThirdLine": "100,150,200,250,300"
                }
            }, {
                "sku": "3730/2",
                "addToCart": {
                    "type": "quantitySelector",
                    "step": 10,
                    "customThirdLine": "100,150,200,250,300"
                }
            }, {
                "sku": "3647/2",
                "addToCart": {
                    "type": "quantitySelector",
                    "step": 10,
                    "customThirdLine": "100,150,200,250,300"
                }
            }, {
                "sku": "3611-EN/2",
                "addToCart": {
                    "type": "quantitySelector",
                    "step": 10,
                    "customThirdLine": "100,150,200,250,300"
                }
            }]
        }
    },
    "accessoryExperience": {
        "hide": false,
        "detailsOl": {
            "hide": false,
            "id": "accessory-experience-details",
            "imageId": "accessory",
            "headline": "India Madhavi accessories",
            "title": "From the hands </br> of the finest craftsmen,</br> to yours.",
            "content": "<p>For the complete Master Origin experience, try our new range of specially-designed accessories. The round, sensual shape of the cups features a little deep in it form, inspired by the coffee bean itself.</p><p>Created by internationally-renowned designer India Madhavi, they are as disctinct and well-crafted as the five coffees themselves.</p>"
        },
        "products": {
            "hide": false,
            "id": "accessory-experience-products",
            "title": "Choose your Essenza Mini",
            "list": [{
                "sku": "3407",
                "addToCart": {
                    "type": "quantitySelector",
                    "step": 10,
                    "customThirdLine": "100,150,200,250,300"
                }
            }, {
                "sku": "3658/2",
                "addToCart": {
                    "type": "quantitySelector",
                    "step": 10,
                    "customThirdLine": "100,150,200,250,300"
                }
            }, {
                "sku": "3730/2",
                "addToCart": {
                    "type": "quantitySelector",
                    "step": 10,
                    "customThirdLine": "100,150,200,250,300"
                }
            }, {
                "sku": "3647/2",
                "addToCart": {
                    "type": "quantitySelector",
                    "step": 10,
                    "customThirdLine": "100,150,200,250,300"
                }
            }, {
                "sku": "3611-EN/2",
                "addToCart": {
                    "type": "quantitySelector",
                    "step": 10,
                    "customThirdLine": "100,150,200,250,300"
                }
            }]
        }
    },
    "common": {
        "close": "close",
        "ccpLinkLabel": "Discover the full story here",
        "discoverMore": "Discover more",
        "suggestedRecipe": "Try it as a",
        "intensity": "Intensity",
        "back": "back",
        "voice": "voice"
    },
    "config": {
        "addToCart": {
            "useMosaicOne": false,
            "addToCart": "Add to Basket",
            "updateCart": "Update the cart",
            "outOfStock": "Temporary out of stock",
            "voices": {
                "close": "Close",
                "addToCart": "You have {QUANTITY} of {PRODUCT} in you cart, click on button to {CART_STATE}.",
                "outOfStock": "{PRODUCT} is out of stock.",
                "howTo": "You can choose the predifined quantities below or the next input field to set your custom quantity.",
                "clickToRemove": "Click to remove {PRODUCT} from your cart.",
                "chooseQuantity": "Please enter quantity",
                "otherQuantity": "other quantity"
            }
        }
    }
}
